{
  "default": {
    "general": {
      "displayAdapter": true,
      "customFields": {},
      "cacheKeyPriority": {},
      "resultBehaviour": {
        "results": {
          "linkedAccountStatusHandling": {
            "condition": "any"
          },
          "statusHandling": {
            "active": "active",
            "inactive": "inactive",
            "suspended": "inactive"
          },
          "selectResultHandling": {
            "condition": "fixed"
          }
        },
        "potentialMatches": {
          "linkedAccountStatusHandling": {
            "condition": "all"
          },
          "statusHandling": {
            "active": "active",
            "inactive": "inactive",
            "suspended": "inactive"
          },
          "selectResultHandling": {
            "condition": "fixed"
          }
        }
      },
      "searchResultFields": [
        "accountNumber",
        "name",
        "address",
        "dateOfBirth",
        "lineOfBusiness",
        "accountStatus"
      ],
      "availableLineOfBusiness": [
        "mobile",
        "fixed"
      ],
      "searchLimits": {
        "customer": {
          "limit": 20,
          "message": "Te veel resultaten gevonden. Specificeer de zoekcriteria."
        },
        "prospect": {
          "limit": 20,
          "message": "Te veel resultaten gevonden. Specificeer de zoekcriteria."
        }
      },
      "dateOfBirthFormat": "DD-MM-YYYY",
      "hiddenFields": [],
      "metaData": [],
      "requiredFields": {},
      "fieldsCombinations": {
        "houseNumber": {
          "condition": "!empty(req.postalCode)",
          "message": "Postal Code is required if providing House Number"
        }
      },
      "constraints": {
        "firstName": [{
          "type": "minLength",
          "value": 3,
          "message": "First name must be more than 3 characters long"
        }],
        "email": [{
          "type": "regex",
          "message": "Not a valid email.",
          "value": "/^[a-zA-Z0-9.!#$%&\\'*+\/=?^_`{|}~-]+@((\\[[0-9]{1,3}\\.[0-9]{1,3}\\.[0-9]{1,3}\\.[0-9]{1,3}\\])|(([a-zA-Z\\-0-9]+\\.)+[a-zA-Z]{2,}))$/"
        }]
      }
    },
    "vodafone_search_customer": {
      "displayAdapter": true,
      "searchLimits": {
        "customer": {
          "limit": 20,
          "message": "Te veel resultaten gevonden. Specificeer de zoekcriteria."
        },
        "prospect": {
          "limit": 20,
          "message": "Te veel resultaten gevonden. Specificeer de zoekcriteria."
        }
      },
      "searchResultFields": [
        "accountNumber",
        "name",
        "address",
        "dateOfBirth",
        "lineOfBusiness",
        "accountStatus"
      ],
      "metaData": [],
      "customFields": {
        "legacyCustomerType": {
          "label": "Legacy options",
          "type": "selectlist-filter",
          "options": {
            "consumer": {
              "label": "Individual",
              "order": 1,
              "mandatoryFields": [
                "phoneNumber",
                "dateOfBirth"
              ],
              "optionalFields": [
                "password"
              ]
            },
            "organization": {
              "label": "Organization",
              "order": 2,
              "mandatoryFields": [
                "accountNumber",
                "chamberOfCommerce"
              ],
              "optionalFields": [
                "password"
              ]
            },
            "organization-without-3-subs": {
              "label": "Organization with less than 3 subscribers",
              "order": 3,
              "mandatoryFields": [
                "phoneNumber",
                "chamberOfCommerce"
              ],
              "optionalFields": [
                "password"
              ]
            }
          }
        }
      },
      "cacheKeyPriority": {
        "INDIVIDUAL": [
          "phoneNumber",
          "dateOfBirth"
        ],
        "ORGANIZATION": [
          "accountNumber",
          "chamberOfCommerce"
        ]
      },
      "dateOfBirthFormat": "YYYY-MM-DD",
      "hiddenFields": [],
      "requiredFields": {},
      "availableLineOfBusiness": [
        "mobile"
      ],
      "fieldsCombinations": {},
      "constraints": {
        "chamberOfCommerce": [{
            "type": "minLength",
            "value": 8,
            "message": "Account number must be equal to or more than 8 characters long."
          },
          {
            "type": "maxLength",
            "value": 12,
            "message": "Account number must be equal to or less than 12 characters long."
          }
        ]
      }
    },
    "ziggo_search_customer": {
      "displayAdapter": true,
      "searchLimits": {
        "customer": {
          "limit": 20,
          "message": "Te veel resultaten gevonden. Specificeer de zoekcriteria."
        },
        "prospect": {
          "limit": 20,
          "message": "Te veel resultaten gevonden. Specificeer de zoekcriteria."
        }
      },
      "searchResultFields": [
        "accountNumber",
        "name",
        "address",
        "dateOfBirth",
        "lineOfBusiness",
        "accountStatus"
      ],
      "metaData": [],
      "dateOfBirthFormat": "DD-MM-YYYY",
      "hiddenFields": [],
      "requiredFields": {},
      "customFields": {
        "filterCategory": {
          "label": "Filter category",
          "type": "selectlist-filter",
          "options": {
            "ADDRESS": {
              "label": "Address",
              "order": 1,
              "mandatoryFields": [
                "postalCode",
                "houseNumber",
                "lastName"
              ],
              "optionalFields": []
            },
            "CUSTOMERIDENTIFIER": {
              "label": "Customer",
              "order": 2,
              "mandatoryFields": [
                "accountNumber"
              ],
              "optionalFields": []
            }
          }
        }
      },
      "cacheKeyPriority": {
        "ADDRESS": [
          "postalCode",
          "houseNumber"
        ]
      },
      "availableLineOfBusiness": [
        "fixed"
      ],
      "fieldsCombinations": {},
      "constraints": {
        "msisdn": [{
          "type": "regex",
          "message": "Not a valid MSISDN.",
          "value": "/^(31)([0-9]{9})$/"
        }],
        "email": [{
          "type": "regex",
          "message": "Not a valid email.",
          "value": "/^[a-zA-Z0-9.!#$%&\\'*+\/=?^_`{|}~-]+@((\\[[0-9]{1,3}\\.[0-9]{1,3}\\.[0-9]{1,3}\\.[0-9]{1,3}\\])|(([a-zA-Z\\-0-9]+\\.)+[a-zA-Z]{2,}))$/"
        }]
      }
    }
  },
  "telesales": {
    "general": {
      "displayAdapter": true,
      "cacheKeyPriority": {},
      "searchLimits": {},
      "searchResultFields": [
        "accountNumber",
        "name",
        "address",
        "dateOfBirth",
        "lineOfBusiness",
        "accountStatus"
      ],
      "availableLineOfBusiness": [
        "mobile",
        "fixed"
      ],
      "metaData": [],
      "dateOfBirthFormat": "DD-MM-YYYY",
      "hiddenFields": [],
      "requiredFields": {},
      "fieldsCombinations": {
        "houseNumber": {
          "condition": "!empty(req.postalCode)",
          "message": "Postal Code is required if providing House Number"
        }
      },
      "constraints": {
        "firstName": [{
          "type": "minLength",
          "value": 2,
          "message": "First name must be more than 2 characters long"
        }]
      }
    },
    "vodafone_search_customer": {
      "displayAdapter": true,
      "searchLimits": {
        "customer": {
          "limit": 20,
          "message": "Te veel resultaten gevonden. Specificeer de zoekcriteria."
        },
        "prospect": {
          "limit": 20,
          "message": "Te veel resultaten gevonden. Specificeer de zoekcriteria."
        }
      },
      "searchResultFields": [
        "accountNumber",
        "name",
        "address",
        "dateOfBirth",
        "lineOfBusiness",
        "accountStatus"
      ],
      "metaData": [],
      "customFields": {
        "legacyCustomerType": {
          "label": "Legacy options",
          "type": "selectlist-filter",
          "options": {
            "consumer": {
              "label": "Individual",
              "order": 1,
              "mandatoryFields": [
                "phoneNumber",
                "dateOfBirth"
              ],
              "optionalFields": [
                "password"
              ]
            },
            "organization": {
              "label": "Organization",
              "order": 2,
              "mandatoryFields": [
                "accountNumber",
                "chamberOfCommerce"
              ],
              "optionalFields": [
                "password"
              ]
            },
            "organization-without-3-subs": {
              "label": "Organization with less than 3 subscribers",
              "order": 3,
              "mandatoryFields": [
                "phoneNumber",
                "chamberOfCommerce"
              ],
              "optionalFields": [
                "password"
              ]
            }
          }
        }
      },
      "cacheKeyPriority": {
        "INDIVIDUAL": [
          "phoneNumber",
          "dateOfBirth"
        ],
        "ORGANIZATION": [
          "accountNumber",
          "chamberOfCommerce"
        ]
      },
      "dateOfBirthFormat": "YYYY-MM-DD",
      "hiddenFields": [],
      "requiredFields": {},
      "availableLineOfBusiness": [
        "mobile"
      ],
      "fieldsCombinations": {},
      "constraints": {
        "chamberOfCommerce": [{
            "type": "minLength",
            "value": 8,
            "message": "Account number must be equal to or more than 8 characters long."
          },
          {
            "type": "maxLength",
            "value": 12,
            "message": "Account number must be equal to or less than 12 characters long."
          }
        ]
      }
    },
    "ziggo_search_customer": {
      "displayAdapter": true,
      "searchLimits": {
        "customer": {
          "limit": 20,
          "message": "Te veel resultaten gevonden. Specificeer de zoekcriteria."
        },
        "prospect": {
          "limit": 20,
          "message": "Te veel resultaten gevonden. Specificeer de zoekcriteria."
        }
      },
      "searchResultFields": [
        "accountNumber",
        "name",
        "address",
        "dateOfBirth",
        "lineOfBusiness",
        "accountStatus"
      ],
      "metaData": [],
      "dateOfBirthFormat": "DD-MM-YYYY",
      "hiddenFields": [],
      "requiredFields": {},
      "customFields": {
        "filterCategory": {
          "label": "Filter category",
          "type": "selectlist-filter",
          "options": {
            "ADDRESS": {
              "label": "Address",
              "order": 1,
              "mandatoryFields": [
                "postalCode",
                "houseNumber",
                "lastName"
              ],
              "optionalFields": []
            },
            "CUSTOMERIDENTIFIER": {
              "label": "Customer",
              "order": 2,
              "mandatoryFields": [
                "accountNumber"
              ],
              "optionalFields": []
            }
          }
        }
      },
      "cacheKeyPriority": {
        "ADDRESS": [
          "postalCode",
          "houseNumber"
        ]
      },
      "availableLineOfBusiness": [
        "fixed"
      ],
      "fieldsCombinations": {},
      "constraints": {
        "msisdn": [{
          "type": "regex",
          "message": "Not a valid MSISDN.",
          "value": "/^(31)([0-9]{9})$/"
        }],
        "email": [{
          "type": "regex",
          "message": "Not a valid email.",
          "value": "/^[a-zA-Z0-9.!#$%&\\'*+\/=?^_`{|}~-]+@((\\[[0-9]{1,3}\\.[0-9]{1,3}\\.[0-9]{1,3}\\.[0-9]{1,3}\\])|(([a-zA-Z\\-0-9]+\\.)+[a-zA-Z]{2,}))$/"
        }]
      }
    }
  },
  "retail": {
    "general": {
      "displayAdapter": true,
      "cacheKeyPriority": {},
      "searchLimits": {},
      "searchResultFields": [
        "accountNumber",
        "name",
        "address",
        "dateOfBirth",
        "lineOfBusiness",
        "accountStatus"
      ],
      "availableLineOfBusiness": [
        "mobile",
        "fixed"
      ],
      "metaData": [],
      "dateOfBirthFormat": "DD-MM-YYYY",
      "hiddenFields": [],
      "requiredFields": {},
      "fieldsCombinations": {
        "houseNumber": {
          "condition": "!empty(req.postalCode)",
          "message": "Postal Code is required if providing House Number"
        }
      },
      "constraints": {
        "firstName": [{
          "type": "minLength",
          "value": 2,
          "message": "First name must be more than 2 characters long"
        }]
      }
    },
    "vodafone_search_customer": {
      "displayAdapter": true,
      "searchLimits": {
        "customer": {
          "limit": 20,
          "message": "Te veel resultaten gevonden. Specificeer de zoekcriteria."
        },
        "prospect": {
          "limit": 20,
          "message": "Te veel resultaten gevonden. Specificeer de zoekcriteria."
        }
      },
      "searchResultFields": [
        "accountNumber",
        "name",
        "address",
        "dateOfBirth",
        "lineOfBusiness",
        "accountStatus"
      ],
      "metaData": [],
      "customFields": {
        "legacyCustomerType": {
          "label": "Legacy options",
          "type": "selectlist-filter",
          "options": {
            "consumer": {
              "label": "Individual",
              "order": 1,
              "mandatoryFields": [
                "phoneNumber",
                "dateOfBirth"
              ],
              "optionalFields": [
                "password"
              ]
            },
            "organization": {
              "label": "Organization",
              "order": 2,
              "mandatoryFields": [
                "accountNumber",
                "chamberOfCommerce"
              ],
              "optionalFields": [
                "password"
              ]
            },
            "organization-without-3-subs": {
              "label": "Organization with less than 3 subscribers",
              "order": 3,
              "mandatoryFields": [
                "phoneNumber",
                "chamberOfCommerce"
              ],
              "optionalFields": [
                "password"
              ]
            }
          }
        }
      },
      "cacheKeyPriority": {
        "INDIVIDUAL": [
          "phoneNumber",
          "dateOfBirth"
        ],
        "ORGANIZATION": [
          "accountNumber",
          "chamberOfCommerce"
        ]
      },
      "dateOfBirthFormat": "YYYY-MM-DD",
      "hiddenFields": [],
      "requiredFields": {},
      "availableLineOfBusiness": [
        "mobile"
      ],
      "fieldsCombinations": {},
      "constraints": {
        "chamberOfCommerce": [{
            "type": "minLength",
            "value": 8,
            "message": "Account number must be equal to or more than 8 characters long."
          },
          {
            "type": "maxLength",
            "value": 12,
            "message": "Account number must be equal to or less than 12 characters long."
          }
        ]
      }
    },
    "ziggo_search_customer": {
      "displayAdapter": true,
      "searchLimits": {
        "customer": {
          "limit": 20,
          "message": "Te veel resultaten gevonden. Specificeer de zoekcriteria."
        },
        "prospect": {
          "limit": 20,
          "message": "Te veel resultaten gevonden. Specificeer de zoekcriteria."
        }
      },
      "searchResultFields": [
        "accountNumber",
        "name",
        "address",
        "dateOfBirth",
        "lineOfBusiness",
        "accountStatus"
      ],
      "metaData": [],
      "dateOfBirthFormat": "DD-MM-YYYY",
      "hiddenFields": [],
      "requiredFields": {},
      "customFields": {
        "filterCategory": {
          "label": "Filter category",
          "type": "selectlist-filter",
          "options": {
            "ADDRESS": {
              "label": "Address",
              "order": 1,
              "mandatoryFields": [
                "postalCode",
                "houseNumber",
                "lastName"
              ],
              "optionalFields": []
            },
            "CUSTOMERIDENTIFIER": {
              "label": "Customer",
              "order": 2,
              "mandatoryFields": [
                "accountNumber"
              ],
              "optionalFields": []
            }
          }
        }
      },
      "cacheKeyPriority": {
        "ADDRESS": [
          "postalCode",
          "houseNumber"
        ]
      },
      "availableLineOfBusiness": [
        "fixed"
      ],
      "fieldsCombinations": {},
      "constraints": {
        "msisdn": [{
          "type": "regex",
          "message": "Not a valid MSISDN.",
          "value": "/^(31)([0-9]{9})$/"
        }],
        "email": [{
          "type": "regex",
          "message": "Not a valid email.",
          "value": "/^[a-zA-Z0-9.!#$%&\\'*+\/=?^_`{|}~-]+@((\\[[0-9]{1,3}\\.[0-9]{1,3}\\.[0-9]{1,3}\\.[0-9]{1,3}\\])|(([a-zA-Z\\-0-9]+\\.)+[a-zA-Z]{2,}))$/"
        }]
      }
    }
  },
  "indirect": {
    "general": {
      "displayAdapter": true,
      "cacheKeyPriority": {},
      "searchLimits": {},
      "searchResultFields": [
        "accountNumber",
        "name",
        "address",
        "dateOfBirth",
        "lineOfBusiness",
        "accountStatus"
      ],
      "availableLineOfBusiness": [
        "mobile",
        "fixed"
      ],
      "metaData": [],
      "dateOfBirthFormat": "DD-MM-YYYY",
      "hiddenFields": [],
      "requiredFields": {},
      "fieldsCombinations": {
        "houseNumber": {
          "condition": "!empty(req.postalCode)",
          "message": "Postal Code is required if providing House Number"
        }
      },
      "constraints": {
        "firstName": [{
          "type": "minLength",
          "value": 2,
          "message": "First name must be more than 2 characters long"
        }]
      }
    },
    "vodafone_search_customer": {
      "displayAdapter": true,
      "searchLimits": {
        "customer": {
          "limit": 20,
          "message": "Te veel resultaten gevonden. Specificeer de zoekcriteria."
        },
        "prospect": {
          "limit": 20,
          "message": "Te veel resultaten gevonden. Specificeer de zoekcriteria."
        }
      },
      "searchResultFields": [
        "accountNumber",
        "name",
        "address",
        "dateOfBirth",
        "lineOfBusiness",
        "accountStatus"
      ],
      "metaData": [],
      "customFields": {
        "legacyCustomerType": {
          "label": "Legacy options",
          "type": "selectlist-filter",
          "options": {
            "consumer": {
              "label": "Individual",
              "order": 1,
              "mandatoryFields": [
                "phoneNumber",
                "dateOfBirth"
              ],
              "optionalFields": [
                "password"
              ]
            },
            "organization": {
              "label": "Organization",
              "order": 2,
              "mandatoryFields": [
                "accountNumber",
                "chamberOfCommerce"
              ],
              "optionalFields": [
                "password"
              ]
            },
            "organization-without-3-subs": {
              "label": "Organization with less than 3 subscribers",
              "order": 3,
              "mandatoryFields": [
                "phoneNumber",
                "chamberOfCommerce"
              ],
              "optionalFields": [
                "password"
              ]
            }
          }
        }
      },
      "cacheKeyPriority": {
        "INDIVIDUAL": [
          "phoneNumber",
          "dateOfBirth"
        ],
        "ORGANIZATION": [
          "accountNumber",
          "chamberOfCommerce"
        ]
      },
      "dateOfBirthFormat": "YYYY-MM-DD",
      "hiddenFields": [],
      "requiredFields": {},
      "availableLineOfBusiness": [
        "mobile"
      ],
      "fieldsCombinations": {},
      "constraints": {
        "chamberOfCommerce": [{
            "type": "minLength",
            "value": 8,
            "message": "Account number must be equal to or more than 8 characters long."
          },
          {
            "type": "maxLength",
            "value": 12,
            "message": "Account number must be equal to or less than 12 characters long."
          }
        ]
      }
    },
    "ziggo_search_customer": {
      "displayAdapter": true,
      "searchLimits": {
        "customer": {
          "limit": 20,
          "message": "Te veel resultaten gevonden. Specificeer de zoekcriteria."
        },
        "prospect": {
          "limit": 20,
          "message": "Te veel resultaten gevonden. Specificeer de zoekcriteria."
        }
      },
      "searchResultFields": [
        "accountNumber",
        "name",
        "address",
        "dateOfBirth",
        "lineOfBusiness",
        "accountStatus"
      ],
      "metaData": [],
      "dateOfBirthFormat": "DD-MM-YYYY",
      "hiddenFields": [],
      "requiredFields": {},
      "customFields": {
        "filterCategory": {
          "label": "Filter category",
          "type": "selectlist-filter",
          "options": {
            "ADDRESS": {
              "label": "Address",
              "order": 1,
              "mandatoryFields": [
                "postalCode",
                "houseNumber",
                "lastName"
              ],
              "optionalFields": []
            },
            "CUSTOMERIDENTIFIER": {
              "label": "Customer",
              "order": 2,
              "mandatoryFields": [
                "accountNumber"
              ],
              "optionalFields": []
            }
          }
        }
      },
      "cacheKeyPriority": {
        "ADDRESS": [
          "postalCode",
          "houseNumber"
        ]
      },
      "availableLineOfBusiness": [
        "fixed"
      ],
      "fieldsCombinations": {},
      "constraints": {
        "msisdn": [{
          "type": "regex",
          "message": "Not a valid MSISDN.",
          "value": "/^(31)([0-9]{9})$/"
        }],
        "email": [{
          "type": "regex",
          "message": "Not a valid email.",
          "value": "/^[a-zA-Z0-9.!#$%&\\'*+\/=?^_`{|}~-]+@((\\[[0-9]{1,3}\\.[0-9]{1,3}\\.[0-9]{1,3}\\.[0-9]{1,3}\\])|(([a-zA-Z\\-0-9]+\\.)+[a-zA-Z]{2,}))$/"
        }]
      }
    }
  }
}
