{
  "salesChannel": [
    {
      "name": "telesales",
      "searchForms": [
        {
          "id": "general-form",
          "fields": [
            {
              "name": "addressDetails",
              "displayName": "Address Details",
              "type": "collapsible-panel",
              "fields": [
                {
                  "name": "addressRow1",
                  "type": "form-inline",
                  "fields": [
                    {
                      "name": "postalCode",
                      "displayName": "Postal code",
                      "type": "postal-code",
                      "size": 8,
                      "validations": [
                        {
                          "type": "regex",
                          "message": "Please enter a valid postal code",
                          "expression": "^\\d{4}[\\s]*[A-Za-z]{2}$"
                        }
                      ]
                    },
                    {
                      "name": "houseNumber",
                      "displayName": "House nr. + Add.",
                      "type": "text",
                      "size": 8,
                      "validations": [
                        {
                          "type": "maxlength",
                          "message": "House number + ext must be of maximum 9 characters long",
                          "expression": "9"
                        }
                      ],
                      "triggerActions": true
                    }
                  ]
                }
              ],
              "collapsible": false
            },
            {
              "name": "customerInformation",
              "displayName": "Customer Details",
              "type": "collapsible-panel",
              "fields": [
                {
                  "name": "phoneNumber",
                  "displayName": "Phone number",
                  "type": "text",
                  "validations": [
                    {
                      "type": "regex",
                      "message": "Not a valid phone number.",
                      "expression": "((((097)|(06))[0-9]{8,8})|(((316)|(3197))[0-9]{8,8}))$"
                    }
                  ]
                },
                {
                  "name": "organizationName",
                  "displayName": "Company name / CoC",
                  "type": "text"
                },
                {
                  "name": "accountNumber",
                  "displayName": "Customer ID",
                  "type": "text",
                  "validations": [
                    {
                      "type": "regex",
                      "message": "Please enter a valid customer id",
                      "expression": "^\\d+$"
                    }
                  ]
                }
              ],
              "collapsible": false
            },
            {
              "name": "orderDetails",
              "displayName": "Order Details",
              "type": "collapsible-panel",
              "fields": [
                {
                  "name": "orderNumber",
                  "displayName": "Order ID",
                  "type": "text"
                }
              ],
              "collapsible": false
            },
            {
              "name": "adapter",
              "displayName": "Advanced Search",
              "type": "toggle-slider",
              "defaultValue": "general",
              "valueMap": {
                "adapter_vznl_k2view": true,
                "general": false
              }
            }
          ]
        }
      ],
      "adapters": [
        {
          "name": "general",
          "scope": "customer:search:quick",
          "dateFormat": "dd-mm-yyyy",
          "formId": "general-form"
        },
        {
          "name": "adapter_vznl_k2view",
          "scope": "customer:search:quick",
          "dateFormat": "dd-mm-yyyy",
          "formId": "general-form"
        }
      ]
    },
    {
      "name": "retail",
      "searchForms": [
        {
          "id": "general-form",
          "fields": [
            {
              "name": "addressDetails",
              "displayName": "Address Details",
              "type": "collapsible-panel",
              "fields": [
                {
                  "name": "addressRow1",
                  "type": "form-inline",
                  "fields": [
                    {
                      "name": "postalCode",
                      "displayName": "Postal code",
                      "type": "postal-code",
                      "size": 8,
                      "validations": [
                        {
                          "type": "regex",
                          "message": "Please enter a valid postal code",
                          "expression": "^\\d{4}[\\s]*[A-Za-z]{2}$"
                        }
                      ]
                    },
                    {
                      "name": "houseNumber",
                      "displayName": "House nr. + Add.",
                      "type": "text",
                      "size": 8,
                      "validations": [
                        {
                          "type": "maxlength",
                          "message": "House number + ext must be of maximum 9 characters long",
                          "expression": "9"
                        }
                      ],
                      "triggerActions": true
                    }
                  ]
                }
              ],
              "collapsible": false
            },
            {
              "name": "customerInformation",
              "displayName": "Customer Details",
              "type": "collapsible-panel",
              "fields": [
                {
                  "name": "phoneNumber",
                  "displayName": "Phone number",
                  "type": "text",
                  "validations": [
                    {
                      "type": "regex",
                      "message": "Not a valid phone number.",
                      "expression": "((((097)|(06))[0-9]{8,8})|(((316)|(3197))[0-9]{8,8}))$"
                    }
                  ]
                },
                {
                  "name": "organizationName",
                  "displayName": "Company name / CoC",
                  "type": "text"
                },
                {
                  "name": "accountNumber",
                  "displayName": "Customer ID",
                  "type": "text",
                  "validations": [
                    {
                      "type": "regex",
                      "message": "Please enter a valid customer id",
                      "expression": "^\\d+$"
                    }
                  ]
                }
              ],
              "collapsible": false
            },
            {
              "name": "orderDetails",
              "displayName": "Order Details",
              "type": "collapsible-panel",
              "fields": [
                {
                  "name": "orderNumber",
                  "displayName": "Order ID",
                  "type": "text"
                }
              ],
              "collapsible": false
            },
            {
              "name": "adapter",
              "displayName": "Advanced Search",
              "type": "toggle-slider",
              "defaultValue": "general",
              "valueMap": {
                "adapter_vznl_k2view": true,
                "general": false
              }
            }
          ]
        }
      ],
      "adapters": [
        {
          "name": "general",
          "scope": "customer:search:quick",
          "dateFormat": "dd-mm-yyyy",
          "formId": "general-form"
        },
        {
          "name": "adapter_vznl_k2view",
          "scope": "customer:search:quick",
          "dateFormat": "dd-mm-yyyy",
          "formId": "general-form"
        }
      ]
    },
    {
      "name": "indirect",
      "searchForms": [
        {
          "id": "general-form",
          "fields": [
            {
              "name": "orderNumber",
              "displayName": "Order ID",
              "type": "text"
            },
            {
              "name": "customerType",
              "displayName": "Customer type",
              "type": "radio-button-group",
              "options": [
                {
                  "name": "individual",
                  "displayName": "Consumer"
                },
                {
                  "name": "organization",
                  "displayName": "Business"
                }
              ],
              "defaultValue": "individual",
              "triggerActions": true
            },
            {
              "name": "vodafoneCustomer",
              "displayName": "Vodafone Customer",
              "type": "collapsible-panel",
              "collapsible": false,
              "fields": [
                {
                  "name": "accountNumber",
                  "displayName": "Customer ID",
                  "type": "text",
                  "actions": [
                    {
                      "type": "disable",
                      "condition": "customerType == 'individual' || lessThanThreePhone"
                    },
                    {
                      "type": "required",
                      "condition": "customerType == 'organization' && chamberOfCommerce"
                    }
                  ],
                  "triggerActions": true
                },
                {
                  "name": "phoneNumber",
                  "displayName": "Phone number",
                  "type": "text",
                  "actions": [
                    {
                      "type": "disable",
                      "condition": "customerType == 'organization' && !lessThanThreePhone"
                    },
                    {
                      "type": "required",
                      "condition": "(customerType == 'individual' && dateOfBirth) || (customerType == 'organization' && lessThanThreePhone && chamberOfCommerce)"
                    }
                  ],
                  "validations": [
                    {
                      "type": "regex",
                      "message": "Not a valid phone number.",
                      "expression": "((316)|(06))[0-9]+$"
                    }
                  ],
                  "triggerActions": true
                },
                {
                  "name": "dateOfBirth",
                  "displayName": "Date of birth",
                  "type": "date",
                  "actions": [
                    {
                      "type": "disable",
                      "condition": "customerType == 'organization'"
                    },
                    {
                      "type": "required",
                      "condition": "customerType == 'individual' && phoneNumber"
                    }
                  ],
                  "validations": [
                    {
                      "type": "dateofbirth",
                      "message": "Invalid date",
                      "expression": 1
                    }
                  ],
                  "triggerActions": true
                },
                {
                  "name": "chamberOfCommerce",
                  "displayName": "Chamber of commerce",
                  "type": "text",
                  "actions": [
                    {
                      "type": "disable",
                      "condition": "customerType == 'individual'"
                    },
                    {
                      "type": "required",
                      "condition": "(customerType == 'organization' && accountNumber) || (customerType == 'organization' && lessThanThreePhone && phoneNumber)"
                    }
                  ],
                  "validations": [
                    {
                      "type": "minlength",
                      "message": "Chamber of commerce must be equal to or more than 8 characters long.",
                      "expression": 8
                    },
                    {
                      "type": "maxlength",
                      "message": "Chamber of commerce must be equal to or less than 12 characters long.",
                      "expression": 12
                    }
                  ],
                  "triggerActions": true
                }
              ]
            },
            {
              "name": "ziggoCustomer",
              "displayName": "Ziggo Customer",
              "type": "collapsible-panel",
              "collapsible": false,
              "fields": [
                {
                  "name": "ziggoAccountNumber",
                  "displayName": "Customer ID",
                  "type": "text",
                  "actions": [
                    {
                      "type": "disable",
                      "condition": "customerType == 'individual'"
                    }
                  ],
                  "triggerActions": true
                },
                {
                  "name": "lastName",
                  "displayName": "Last name",
                  "type": "text",
                  "actions": [
                    {
                      "type": "disable",
                      "condition": "customerType == 'organization'"
                    },
                    {
                      "type": "required",
                      "condition": "customerType == 'individual' && (houseNumber || postalCode )"
                    }
                  ],
                  "triggerActions": true
                },
                {
                  "name": "addressRow1",
                  "type": "form-inline",
                  "fields": [
                    {
                      "name": "postalCode",
                      "displayName": "Postal code",
                      "type": "text",
                      "size": 7,
                      "actions": [
                        {
                          "type": "required",
                          "condition": "houseNumber || houseNumberExtension || lastName "
                        }
                      ],
                      "triggerActions": true
                    },
                    {
                      "name": "houseNumber",
                      "displayName": "House nr.",
                      "type": "text",
                      "size": 6,
                      "actions": [
                        {
                          "type": "required",
                          "condition": "houseNumberExtension || postalCode || lastName "
                        }
                      ],
                      "validations": [
                        {
                          "type": "maxlength",
                          "message": "House number must be of maximum 5 characters long",
                          "expression": 5
                        }
                      ],
                      "triggerActions": true
                    },
                    {
                      "name": "houseNumberExtension",
                      "displayName": "Add.",
                      "type": "text",
                      "size": 4,
                      "appendTo": "houseNumber",
                      "triggerActions": true
                    }
                  ]
                }
              ]
            },
            {
              "name": "adapter",
              "displayName": "Advanced Search",
              "type": "toggle-slider",
              "defaultValue": "general",
              "valueMap": {
                "general": "false",
                "adapter_vznl_k2view": "true"
              }
            }
          ]
        }
      ],
      "adapters": [
        {
          "name": "general",
          "scope": "customer:search:quick",
          "dateFormat": "dd-mm-yyyy",
          "formId": "general-form"
        },
        {
          "name": "adapter_vznl_k2view",
          "scope": "customer:search:quick",
          "dateFormat": "dd-mm-yyyy",
          "formId": "general-form"
        }
      ]
    },
    {
      "name": "default",
      "searchForms": [
        {
          "id": "general-form",
          "fields": [
            {
              "name": "addressDetails",
              "displayName": "Address Details",
              "type": "collapsible-panel",
              "fields": [
                {
                  "name": "addressRow1",
                  "type": "form-inline",
                  "fields": [
                    {
                      "name": "postalCode",
                      "displayName": "Postal code",
                      "type": "postal-code",
                      "size": 8,
                      "validations": [
                        {
                          "type": "regex",
                          "message": "Please enter a valid postal code",
                          "expression": "^\\d{4}[\\s]*[A-Za-z]{2}$"
                        }
                      ]
                    },
                    {
                      "name": "houseNumber",
                      "displayName": "House nr. + Add.",
                      "type": "text",
                      "size": 8,
                      "validations": [
                        {
                          "type": "maxlength",
                          "message": "House number + ext must be of maximum 9 characters long",
                          "expression": "9"
                        }
                      ],
                      "triggerActions": true
                    }
                  ]
                }
              ],
              "collapsible": false
            },
            {
              "name": "customerInformation",
              "displayName": "Customer Details",
              "type": "collapsible-panel",
              "fields": [
                {
                  "name": "phoneNumber",
                  "displayName": "Phone number",
                  "type": "text",
                  "validations": [
                    {
                      "type": "regex",
                      "message": "Not a valid phone number.",
                      "expression": "((((097)|(06))[0-9]{8,8})|(((316)|(3197))[0-9]{8,8}))$"
                    }
                  ]
                },
                {
                  "name": "organizationName",
                  "displayName": "Company name / CoC",
                  "type": "text"
                },
                {
                  "name": "accountNumber",
                  "displayName": "Customer ID",
                  "type": "text",
                  "validations": [
                    {
                      "type": "regex",
                      "message": "Please enter a valid customer id",
                      "expression": "^\\d+$"
                    }
                  ]
                }
              ],
              "collapsible": false
            },
            {
              "name": "orderDetails",
              "displayName": "Order Details",
              "type": "collapsible-panel",
              "fields": [
                {
                  "name": "orderNumber",
                  "displayName": "Order ID",
                  "type": "text"
                }
              ],
              "collapsible": false
            },
            {
              "name": "adapter",
              "displayName": "Advanced Search",
              "type": "toggle-slider",
              "defaultValue": "general",
              "valueMap": {
                "adapter_vznl_k2view": true,
                "general": false
              }
            }
          ]
        }
      ],
      "adapters": [
        {
          "name": "general",
          "scope": "customer:search:quick",
          "dateFormat": "dd-mm-yyyy",
          "formId": "general-form"
        },
        {
          "name": "adapter_vznl_k2view",
          "scope": "customer:search:quick",
          "dateFormat": "dd-mm-yyyy",
          "formId": "general-form"
        }
      ]
    }
  ]
}