{
  "enabled": true,
  "potentialCustomerMatch": {
    "individualCriteria": "lastName && contactDetails.address.houseNumber && contactDetails.address.postalCode",
    "organizationCriteria": "organizationName && contactDetails.address.houseNumber && contactDetails.address.postalCode"
  },
  "customerLinkingConstraints": [
    {
      "type": "line_of_business",
      "lineOfBusiness": "mobile",
      "allowedRelation": [
        "fixed"
      ],
      "message": "Mobile line of business can be linked only with fixed."
    },
    {
      "type": "line_of_business",
      "lineOfBusiness": "fixed",
      "allowedRelation": [
        "mobile"
      ],
      "message": "Fixed line of business can be linked only with mobile."
    },
    {
      "type": "cardinality",
      "lineOfBusiness": "mobile",
      "linkingAllowed": true,
      "cardinality": "2",
      "message": "Maximum 2 customers can be linked within mobile line of business."
    },
    {
      "type": "cardinality",
      "lineOfBusiness": "fixed",
      "linkingAllowed": true,
      "cardinality": "2",
      "message": "Maximum 2 customers can be linked within fixed line of business."
    }
  ]
}