{
  "general": {
    "theme": "omnius"
  },
  "customer": {
    "apiUrl": "proxy.php?url=/api/v1/customer"
  },
  "checkout": {
    "endpoints": {
      "checkout": "/proxy.php?url=/api/v1/checkout",
      "validateaddress": "/proxy.php?url=/api/v1/address/validate"
    }
  },
  "shoppingcart": {
    "apiUrl": "/api/v1/shoppingcart"
  },
  "ordermanagement": {
    "apiUrl": "/api/v1/order"
  },
  "serviceability": {
    "endpoints": {
      "serviceability": "/proxy.php?url=/api/v1/serviceability/check",
      "validateaddress": "/proxy.php?url=/api/v1/address/validate"
    },
    "items": [
      {
        "field": "Internet.FTTH",
        "label": "Fiber"
      },
      {
        "field": "Internet.COAX",
        "label": "COAX"
      }
    ],
    "form": [
      {
        "name": "postalcode",
        "label": "Postalcode",
        "visible": true,
        "active": true,
        "size": 135,
        "required": true
      },
      {
        "name": "housenumber",
        "label": "Housenumber",
        "visible": true,
        "active": true,
        "size": 110,
        "required": true
      },
      {
        "name": "suffix",
        "label": "Suffix",
        "visible": true,
        "active": true,
        "size": 110
      },
      {
        "name": "street",
        "label": "Street",
        "visible": true,
        "active": false,
        "size": 160
      },
      {
        "name": "city",
        "label": "City",
        "visible": true,
        "active": false,
        "size": 160
      }
    ],
    "serviceNameMapping": {
      "ftth": "delta_ftth",
      "coax": "delta_coax"
    }
  },
  "menu": {
    "links": []
  }
}